{"levelTable":
        [
        {"n":"1","exp":"15"},
        {"n":"2","exp":"70"},
        {"n":"3","exp":"105"},
        {"n":"4","exp":"330"},
        {"n":"5","exp":"430"},
        {"n":"6","exp":"500"},
        {"n":"7","exp":"570"},
        {"n":"8","exp":"640"},
        {"n":"9","exp":"710"},
        {"n":"10","exp":"780"},
        {"n":"11","exp":"850"},
        {"n":"12","exp":"920"},
        {"n":"13","exp":"990"}

    ]
}